<?xml version="1.0" standalone="no"?>
<!DOCTYPE svg PUBLIC "-//W3C//DTD SVG 1.1//EN" "http://www.w3.org/Graphics/SVG/1.1/DTD/svg11.dtd" >
<svg xmlns="http://www.w3.org/2000/svg">
<metadata></metadata>
<defs>
<font id="gotham_lightregular" horiz-adv-x="640" >
<font-face units-per-em="1000" ascent="800" descent="-200" />
<missing-glyph horiz-adv-x="300" />
<glyph unicode="&#xfb01;" horiz-adv-x="611" d="M462 510h49v-510h-49v510zM123 465h-74v45h74v50q0 88 45 133q40 40 107 40q23 0 41 -3t35 -9v-46q-22 7 -39 10t-37 3q-103 0 -103 -129v-49h178v-45h-178v-465h-49v465zM456 710h61v-67h-61v67z" />
<glyph unicode="&#xfb02;" horiz-adv-x="611" d="M462 730h49v-730h-49v730zM123 465h-74v45h74v50q0 88 45 133q40 40 107 40q23 0 41 -3t35 -9v-46q-22 7 -39 10t-37 3q-103 0 -103 -129v-49h178v-45h-178v-465h-49v465z" />
<glyph horiz-adv-x="0" />
<glyph unicode="&#xd;" horiz-adv-x="300" />
<glyph unicode=" "  horiz-adv-x="300" />
<glyph unicode="&#x09;" horiz-adv-x="300" />
<glyph unicode="&#xa0;" horiz-adv-x="300" />
<glyph unicode="!" horiz-adv-x="252" d="M93 85h66v-85h-66v85zM97 630v70h58v-70l-15 -447h-28z" />
<glyph unicode="&#x22;" horiz-adv-x="410" d="M103 700h65v-5l-71 -249h-29zM283 700h65v-5l-71 -249h-29z" />
<glyph unicode="#" horiz-adv-x="700" d="M433 234l41 236h-207l-41 -236h207zM170 187h-121v47h129l41 236h-130v47h138l31 183h48l-31 -183h207l31 183h48l-31 -183h120v-47h-128l-41 -236h129v-47h-137l-32 -187h-48l32 187h-207l-32 -187h-48z" />
<glyph unicode="$" horiz-adv-x="632" d="M343 45q37 1 67.5 11.5t52.5 28.5t33.5 42.5t11.5 52.5v2q0 25 -7 46t-26 38t-51 30.5t-81 24.5v-276zM299 655q-73 -2 -117 -39.5t-44 -91.5v-2q0 -24 7 -44.5t25 -38t49 -31.5t80 -26v273zM297 1q-69 6 -126 32.5t-111 74.5l33 39q47 -44 96 -69.5t110 -30.5v284 q-113 25 -162.5 68.5t-49.5 118.5v2q0 37 15.5 69.5t43.5 56.5t66.5 38.5t84.5 15.5v58h48v-60q58 -5 103 -25.5t90 -56.5l-33 -39q-39 35 -78.5 53t-83.5 23v-281q114 -24 165 -68.5t51 -117.5v-2q0 -39 -15.5 -72t-44 -57.5t-68 -38.5t-86.5 -16v-98h-48v99z" />
<glyph unicode="%" horiz-adv-x="824" d="M616 35q22 0 40.5 10.5t32 28.5t21 42.5t7.5 52.5v2q0 29 -8 54t-22.5 43t-33 28.5t-39.5 10.5q-22 0 -40.5 -10.5t-32 -29t-21 -43t-7.5 -51.5v-2q0 -30 8 -55t22.5 -43t33 -28t39.5 -10zM210 393q22 0 40.5 10.5t32 28.5t21 42.5t7.5 52.5v2q0 29 -8 54t-22.5 43 t-33 28.5t-39.5 10.5q-22 0 -40.5 -10.5t-32 -29t-21 -43t-7.5 -51.5v-2q0 -30 8 -55t22.5 -43t33 -28t39.5 -10zM614 -8q-35 0 -63 14.5t-48 39t-31 56.5t-11 67v2q0 35 11 67.5t31.5 57t49 39.5t63.5 15q34 0 62.5 -14.5t48.5 -39.5t31 -57t11 -66v-2q0 -35 -11 -67.5 t-31.5 -57.5t-49 -39.5t-63.5 -14.5zM642 700h54l-514 -700h-54zM208 350q-35 0 -63 14.5t-48 39t-31 56.5t-11 67v2q0 35 11 67.5t31.5 57t49 39.5t63.5 15q34 0 62.5 -14.5t48.5 -39.5t31 -57t11 -66v-2q0 -35 -11 -67.5t-31.5 -57.5t-49 -39.5t-63.5 -14.5z" />
<glyph unicode="&#x26;" horiz-adv-x="696" d="M265 35q59 0 109 29.5t94 80.5l-207 214q-84 -29 -122 -74.5t-38 -96.5v-2q0 -32 12 -59.5t34 -48t52 -32t66 -11.5zM285 409q151 48 151 147v2q0 47 -31.5 78.5t-79.5 31.5q-54 0 -87.5 -32.5t-33.5 -80.5v-2q0 -17 4 -32t13.5 -31.5t25 -36t38.5 -44.5zM501 111 q-50 -58 -108 -89.5t-129 -31.5q-46 0 -85.5 14.5t-68 40t-45 61t-16.5 78.5v2q0 71 47.5 122t133.5 83q-40 44 -59 80t-19 80v2q0 34 13 63t36 50.5t55.5 33.5t70.5 12q34 0 63.5 -12t51 -32.5t34 -48.5t12.5 -59v-2q0 -66 -45.5 -109.5t-126.5 -71.5l184 -189 q26 36 48.5 79t42.5 91l47 -19q-24 -54 -49.5 -101t-54.5 -85l129 -133l-41 -34z" />
<glyph unicode="'" horiz-adv-x="230" d="M103 700h65v-5l-71 -249h-29z" />
<glyph unicode="(" horiz-adv-x="430" d="M348 -141q-133 75 -205 183t-72 245t72 245t205 183l21 -33q-119 -73 -182.5 -171t-63.5 -224t63.5 -224t182.5 -171z" />
<glyph unicode=")" horiz-adv-x="430" d="M61 -108q119 73 182.5 171t63.5 224t-63.5 224t-182.5 171l21 33q133 -75 205 -183t72 -245t-72 -245t-205 -183z" />
<glyph unicode="*" horiz-adv-x="430" d="M203 533l-106 -72l-22 37l118 56l-118 56l22 37l106 -72l-9 127h42l-9 -127l106 72l22 -37l-118 -56l118 -56l-22 -37l-106 72l9 -127h-42z" />
<glyph unicode="+" d="M295 328h-217v48h217v215h50v-215h217v-48h-217v-215h-50v215z" />
<glyph unicode="," horiz-adv-x="230" d="M53 -82q32 17 45 35t11 47h-27v85h66v-74q0 -47 -19 -74t-64 -44z" />
<glyph unicode="-" horiz-adv-x="408" d="M70 325h268v-56h-268v56z" />
<glyph unicode="." horiz-adv-x="230" d="M82 85h66v-85h-66v85z" />
<glyph unicode="/" horiz-adv-x="500" d="M454 798h49l-472 -926h-49z" />
<glyph unicode="0" horiz-adv-x="710" d="M356 35q54 0 97.5 26t74 69.5t47 100t16.5 117.5v2q0 61 -16.5 118t-47.5 100.5t-75 70t-98 26.5t-97.5 -26t-74 -69.5t-47 -100t-16.5 -117.5v-2q0 -61 16.5 -117.5t47.5 -100.5t75 -70.5t98 -26.5zM354 -12q-67 0 -120.5 29t-91 78.5t-57.5 115t-20 137.5v2 q0 72 20.5 138t58.5 115.5t91.5 79t120.5 29.5t120.5 -29t91 -78.5t57.5 -115t20 -137.5v-2q0 -72 -20.5 -138t-58.5 -115.5t-91.5 -79t-120.5 -29.5z" />
<glyph unicode="1" horiz-adv-x="335" d="M179 651l-135 -46l-14 41l160 59h40v-705h-51v651z" />
<glyph unicode="2" horiz-adv-x="590" d="M48 39l261 236q43 39 72.5 71t48 60t26.5 54t8 54q0 34 -13 62t-34.5 47.5t-50.5 30t-60 10.5q-67 0 -114 -33.5t-91 -96.5l-39 26q23 35 47.5 62.5t54 47t65.5 30t82 10.5q45 0 83 -14.5t65.5 -40.5t43.5 -61t16 -76v-2q0 -36 -10 -67.5t-31.5 -63t-54.5 -65.5t-79 -76 l-214 -194h396v-50h-478v39z" />
<glyph unicode="3" horiz-adv-x="610" d="M311 -12q-86 0 -150 35t-107 91l40 33q42 -54 95.5 -83t122.5 -29q35 0 66.5 11.5t55 31.5t37.5 48.5t14 63.5v2q0 37 -16.5 65t-45.5 47.5t-69 29.5t-87 10h-38l-13 29l241 278h-367v49h438v-37l-237 -271q50 -3 95 -16.5t79 -37.5t54 -60t20 -84v-2q0 -46 -18.5 -83.5 t-50 -64.5t-73 -41.5t-86.5 -14.5z" />
<glyph unicode="4" horiz-adv-x="664" d="M445 216v414l-334 -414h334zM445 171h-379l-18 39l400 495h47v-489h114v-45h-114v-171h-50v171z" />
<glyph unicode="5" horiz-adv-x="605" d="M302 -12q-72 0 -135.5 33t-109.5 80l37 37q48 -48 101 -75.5t109 -27.5q42 0 76.5 13.5t59 37.5t38.5 56t14 69v2q0 36 -14 66.5t-39.5 52.5t-61 34.5t-77.5 12.5q-49 0 -87 -13t-71 -31l-40 26l20 339h393v-50h-347l-17 -262q34 17 70 27.5t85 10.5q51 0 94.5 -15.5 t76 -43t51 -66.5t18.5 -86v-2q0 -50 -18.5 -91t-51 -71t-77 -46.5t-97.5 -16.5z" />
<glyph unicode="6" horiz-adv-x="642" d="M335 35q42 0 76.5 14.5t59 39t38 57.5t13.5 70v2q0 36 -14 66.5t-39.5 53t-60 35.5t-76.5 13q-43 0 -79 -15t-61.5 -39.5t-40 -55.5t-14.5 -63v-2q0 -38 15 -70t41.5 -55.5t63 -37t78.5 -13.5zM331 -12q-54 0 -100 19t-78 51q-22 22 -38.5 47t-28 57t-17 73.5t-5.5 95.5 v2q0 79 20 148t57 120.5t90 81t118 29.5q60 0 108 -21.5t94 -59.5l-33 -40q-41 36 -82 55t-91 19q-53 0 -96.5 -26.5t-73.5 -74.5t-45.5 -115t-13.5 -147q15 25 35 48.5t46.5 41.5t60.5 29t77 11q48 0 91.5 -15.5t76.5 -43.5t53 -67t20 -86v-2q0 -50 -19 -92t-52 -72.5 t-77.5 -48t-96.5 -17.5z" />
<glyph unicode="7" horiz-adv-x="587" d="M474 650h-406v50h464v-38l-319 -662h-57z" />
<glyph unicode="8" horiz-adv-x="630" d="M315 37q48 0 86.5 12t65 32.5t40.5 47t14 56.5v2q0 33 -16 60.5t-44 47.5t-65.5 31t-80.5 11t-80.5 -11t-65.5 -31t-44 -47.5t-16 -60.5v-2q0 -30 14 -56.5t40.5 -47t65 -32.5t86.5 -12zM315 381q37 0 70 10.5t58 29.5t39.5 45.5t14.5 58.5v2q0 30 -14 55t-38.5 43 t-58 28t-71.5 10t-71.5 -10t-58 -28t-38.5 -43t-14 -55v-2q0 -32 14.5 -58.5t39.5 -45.5t58 -29.5t70 -10.5zM315 -10q-55 0 -102.5 14.5t-82.5 40.5t-55 62t-20 80v2q0 31 12 57.5t32.5 48.5t49 39t61.5 28q-26 10 -49.5 25.5t-41.5 35.5t-29 45.5t-11 56.5v2q0 41 20 74.5 t53 57.5t75.5 37.5t87.5 13.5t87.5 -13.5t75.5 -37.5t53 -57.5t20 -74.5v-2q0 -31 -11 -56.5t-29 -45.5t-41.5 -35.5t-49.5 -25.5q33 -11 61.5 -28t49 -39t32.5 -48.5t12 -57.5v-2q0 -44 -20 -80t-55 -62t-82.5 -40.5t-102.5 -14.5z" />
<glyph unicode="9" horiz-adv-x="642" d="M310 307q45 0 81 15.5t61.5 40.5t39 57t13.5 65v2q0 37 -15 69.5t-41 56.5t-63 38t-80 14t-77.5 -15.5t-58.5 -41t-37 -59.5t-13 -70v-2q0 -37 14 -68t39.5 -53.5t60 -35.5t76.5 -13zM293 -12q-66 0 -116.5 25t-94.5 62l33 40q45 -40 88 -60t91 -20q53 0 97 27t75 75 t47 114t13 145q-15 -27 -35.5 -51.5t-47.5 -43t-60.5 -29.5t-74.5 -11q-53 0 -97.5 16.5t-76.5 45.5t-50 68t-18 84v2q0 48 18 91t50.5 75t77.5 50.5t100 18.5q57 0 101.5 -19.5t76.5 -51.5q20 -20 36.5 -45.5t28 -58.5t17.5 -75t6 -94v-2q0 -83 -21.5 -152t-60 -119.5 t-90.5 -78.5t-113 -28z" />
<glyph unicode=":" horiz-adv-x="240" d="M87 85h66v-85h-66v85zM87 510h66v-85h-66v85z" />
<glyph unicode=";" horiz-adv-x="240" d="M58 -82q32 17 45 35t11 47h-27v85h66v-74q0 -47 -19 -74t-64 -44zM87 510h66v-85h-66v85z" />
<glyph unicode="&#x3c;" d="M73 332v40l464 241v-54l-403 -206l403 -208v-54z" />
<glyph unicode="=" d="M93 265h454v-51h-454v51zM93 490h454v-51h-454v51z" />
<glyph unicode="&#x3e;" d="M103 145l403 206l-403 208v54l464 -241v-40l-464 -241v54z" />
<glyph unicode="?" horiz-adv-x="534" d="M212 85h66v-85h-66v85zM216 345l5 5q100 2 154 45t54 115v2q0 31 -11.5 58.5t-33 48t-52.5 32.5t-69 12q-60 0 -107 -27.5t-86 -75.5l-36 30q43 53 97 86t134 33q49 0 89.5 -15.5t68.5 -42t43.5 -62t15.5 -75.5v-2q0 -47 -17 -82.5t-45.5 -61t-67.5 -40.5t-82 -20 l-9 -125h-32z" />
<glyph unicode="@" horiz-adv-x="980" d="M446 120q35 0 67.5 16.5t57.5 43.5t40 61.5t15 71.5q0 30 -10 55t-27.5 44t-42 29.5t-52.5 10.5q-34 0 -66.5 -15t-58 -41.5t-41 -62.5t-15.5 -78q0 -64 37 -99.5t96 -35.5zM499 -162q-96 0 -177.5 34.5t-141.5 94t-93.5 138.5t-33.5 169t34 169.5t93 139t139 94.5 t172 35t171.5 -32t138.5 -86.5t92.5 -126.5t33.5 -151q0 -64 -16.5 -110t-42.5 -75.5t-58.5 -43.5t-64.5 -14q-53 0 -88 25t-48 68q-15 -19 -32.5 -36t-38.5 -29.5t-45.5 -20t-54.5 -7.5q-36 0 -68.5 13t-56.5 36.5t-38 56t-14 72.5q0 54 20.5 99.5t54 78.5t75 52t83.5 19 q30 0 54 -7.5t42 -20.5t31 -29t22 -32l14 75l48 -6l-37 -211q-9 -53 -9 -72q0 -43 23.5 -65.5t66.5 -22.5q26 0 52 12t46.5 37t33 64.5t12.5 93.5q0 69 -30.5 134.5t-84.5 116.5t-127.5 82t-159.5 31q-87 0 -161 -32t-128 -87.5t-84.5 -129t-30.5 -157.5t30.5 -157.5 t85 -128.5t130.5 -86.5t166 -31.5q75 0 133.5 17t116.5 51l15 -25q-58 -35 -122.5 -55t-142.5 -20z" />
<glyph unicode="A" horiz-adv-x="790" d="M578 243l-184 405l-185 -405h369zM370 705h50l326 -705h-57l-89 196h-413l-89 -196h-54z" />
<glyph unicode="B" horiz-adv-x="722" d="M410 48q90 0 143 38.5t53 104.5v2q0 65 -54.5 100.5t-158.5 35.5h-237v-281h254zM387 377q39 0 72 9.5t57 27.5t37.5 45t13.5 62v2q0 58 -45 93.5t-130 35.5h-236v-275h231zM104 700h289q60 0 106.5 -16.5t75.5 -45.5q45 -45 45 -110v-2q0 -36 -10.5 -63t-27.5 -47 t-38.5 -33.5t-42.5 -22.5q31 -8 60 -21.5t50.5 -34t34.5 -48t13 -63.5v-2q0 -44 -18 -79.5t-51 -60t-79 -38t-103 -13.5h-304v700z" />
<glyph unicode="C" horiz-adv-x="738" d="M421 -12q-75 0 -139 28t-110.5 76.5t-72.5 114.5t-26 141v2q0 74 26.5 140t73 115.5t110.5 78t140 28.5q47 0 85 -8t70.5 -23t61 -35.5t55.5 -45.5l-37 -38q-23 22 -48 41t-53.5 32.5t-62 21.5t-72.5 8q-63 0 -117 -24t-93.5 -66.5t-62 -99.5t-22.5 -123v-2 q0 -66 23 -123.5t62.5 -100t93.5 -67t117 -24.5q76 0 132 28t109 81l35 -34q-28 -27 -57.5 -49.5t-63 -38.5t-72.5 -25t-85 -9z" />
<glyph unicode="D" horiz-adv-x="782" d="M337 48q73 0 132 23.5t100 64t63.5 95t22.5 117.5v2q0 62 -22.5 117t-63.5 96t-100 65t-132 24h-181v-604h181zM104 700h233q82 0 150.5 -26.5t118 -73.5t76.5 -110.5t27 -137.5v-2q0 -74 -27 -138t-76.5 -111t-118 -74t-150.5 -27h-233v700z" />
<glyph unicode="E" horiz-adv-x="670" d="M104 700h498v-48h-446v-275h401v-48h-401v-281h451v-48h-503v700z" />
<glyph unicode="F" horiz-adv-x="656" d="M104 700h493v-48h-441v-287h396v-48h-396v-317h-52v700z" />
<glyph unicode="G" horiz-adv-x="784" d="M425 -12q-83 0 -148.5 28.5t-110.5 77.5t-69 114.5t-24 139.5v2q0 71 24.5 136.5t70 115.5t109.5 80t142 30q43 0 78.5 -6t66 -18t58 -29t53.5 -39l-34 -39q-41 36 -93.5 60t-131.5 24q-64 0 -117 -25t-91.5 -68t-59.5 -100t-21 -120v-2q0 -68 20.5 -126t59.5 -100 t94.5 -66t125.5 -24q33 0 65 6.5t60.5 17.5t53.5 25.5t44 30.5v201h-234v48h284v-270q-48 -42 -118.5 -73.5t-156.5 -31.5z" />
<glyph unicode="H" horiz-adv-x="760" d="M104 700h52v-324h448v324h52v-700h-52v328h-448v-328h-52v700z" />
<glyph unicode="I" horiz-adv-x="274" d="M111 700h52v-700h-52v700z" />
<glyph unicode="J" horiz-adv-x="549" d="M249 -10q-78 0 -129 36.5t-83 94.5l43 27q16 -27 33.5 -48t38 -35t45 -21t55.5 -7q32 0 60 12t48.5 35.5t32 58.5t11.5 81v476h52v-472q0 -61 -17.5 -107t-46.5 -75q-28 -28 -64.5 -42t-78.5 -14z" />
<glyph unicode="K" horiz-adv-x="715" d="M104 700h52v-460l446 460h71l-306 -309l319 -391h-68l-288 354l-174 -176v-178h-52v700z" />
<glyph unicode="L" horiz-adv-x="619" d="M104 700h52v-652h411v-48h-463v700z" />
<glyph unicode="M" horiz-adv-x="868" d="M104 700h49l281 -414l281 414h49v-700h-52v608l-277 -403h-4l-277 403v-608h-50v700z" />
<glyph unicode="N" horiz-adv-x="790" d="M104 700h49l483 -609v609h50v-700h-39l-493 622v-622h-50v700z" />
<glyph unicode="O" horiz-adv-x="850" d="M426 35q65 0 119.5 24.5t94 67t61.5 99.5t22 122v2q0 65 -22.5 122.5t-62 100t-94.5 67.5t-120 25t-119.5 -24.5t-94 -67t-61.5 -99.5t-22 -122v-2q0 -65 22.5 -122.5t62 -100t94.5 -67.5t120 -25zM424 -12q-80 0 -144.5 29.5t-110.5 79t-71 114.5t-25 137v2 q0 72 25.5 137.5t71.5 115.5t111 79.5t145 29.5q79 0 144 -29.5t111 -79t71 -114.5t25 -137q1 -1 0 -2q0 -72 -25.5 -137.5t-71.5 -115.5t-111.5 -79.5t-144.5 -29.5z" />
<glyph unicode="P" horiz-adv-x="668" d="M348 309q49 0 89 12t68.5 34.5t44.5 54.5t16 71v2q0 42 -15.5 73.5t-43.5 52.5t-67 32t-86 11h-198v-343h192zM104 700h254q58 0 105.5 -14.5t82 -42t53.5 -67t19 -90.5v-2q0 -55 -22 -97t-59.5 -70t-87 -42t-104.5 -14h-189v-261h-52v700z" />
<glyph unicode="Q" horiz-adv-x="850" d="M426 35q55 0 102 17.5t84 48.5l-136 116l37 41l134 -122q36 42 56 96.5t20 115.5v2q0 65 -22.5 122.5t-62 100t-94.5 67.5t-120 25t-119.5 -24.5t-94 -67t-61.5 -99.5t-22 -122v-2q0 -65 22.5 -122.5t62 -100t94.5 -67.5t120 -25zM650 68q-45 -38 -101.5 -59t-124.5 -21 q-80 0 -144.5 29.5t-110.5 79t-71 114.5t-25 137v2q0 72 25.5 137.5t71.5 115.5t111 79.5t145 29.5q79 0 144 -29.5t111 -79t71 -114.5t25 -137q1 -1 0 -2q0 -70 -23.5 -133.5t-68.5 -113.5l100 -84l-37 -40z" />
<glyph unicode="R" horiz-adv-x="723" d="M392 337q44 0 81.5 11t64.5 31.5t42.5 50t15.5 67.5v2q0 71 -52.5 112t-148.5 41h-239v-315h236zM104 700h294q65 0 115 -18.5t82 -50.5q25 -25 39 -58.5t14 -71.5v-2q0 -44 -15.5 -78.5t-43 -59.5t-65 -40.5t-81.5 -21.5l231 -299h-66l-223 290h-2h-227v-290h-52v700z " />
<glyph unicode="S" d="M341 -10q-84 0 -151.5 28t-130.5 84l34 39q29 -27 57.5 -46.5t58.5 -32t63 -19t72 -6.5t72 10.5t56 29t36 44t13 55.5v2q0 28 -8.5 50t-31 40t-60.5 32.5t-98 26.5q-63 13 -108 30.5t-73.5 41t-41.5 54.5t-13 71v2q0 39 17 72.5t47 58.5t71 39t90 14q76 0 131.5 -21 t108.5 -64l-33 -41q-50 43 -100.5 61t-108.5 18q-39 0 -70.5 -10.5t-54 -28.5t-34.5 -42t-12 -51v-2q0 -28 8.5 -50.5t31 -41t62.5 -33.5t102 -28q122 -25 176 -70.5t54 -122.5v-2q0 -42 -17.5 -77.5t-48 -60.5t-73 -39t-93.5 -14z" />
<glyph unicode="T" horiz-adv-x="648" d="M298 652h-244v48h540v-48h-244v-652h-52v652z" />
<glyph unicode="U" horiz-adv-x="760" d="M380 -11q-63 0 -115.5 19.5t-91 58t-59.5 94.5t-21 130v409h52v-404q0 -125 62.5 -192.5t174.5 -67.5q53 0 96 16t73.5 48t47 80t16.5 111v409h52v-403q0 -75 -21 -132.5t-59 -96.5t-90.5 -59t-116.5 -20z" />
<glyph unicode="V" horiz-adv-x="750" d="M44 700h58l274 -644l275 644h55l-308 -705h-46z" />
<glyph unicode="W" horiz-adv-x="1102" d="M50 700h58l220 -623l205 625h40l205 -625l220 623h54l-254 -705h-42l-205 608l-205 -608h-42z" />
<glyph unicode="X" horiz-adv-x="722" d="M330 357l-269 343h62l239 -308l238 308h61l-268 -342l278 -358h-62l-249 323l-248 -323h-61z" />
<glyph unicode="Y" horiz-adv-x="716" d="M332 277l-300 423h65l262 -376l263 376h62l-300 -422v-278h-52v277z" />
<glyph unicode="Z" horiz-adv-x="688" d="M68 29l479 624h-462v47h536v-29l-479 -624h479v-47h-553v29z" />
<glyph unicode="[" horiz-adv-x="430" d="M98 700h273v-38h-227v-754h227v-38h-273v830z" />
<glyph unicode="\" horiz-adv-x="500" d="M-3 798h49l472 -926h-49z" />
<glyph unicode="]" horiz-adv-x="430" d="M59 -92h227v754h-227v38h273v-830h-273v38z" />
<glyph unicode="^" horiz-adv-x="500" d="M228 703h44l158 -210h-53l-128 167l-128 -167h-51z" />
<glyph unicode="_" horiz-adv-x="600" d="M-2 -116h604v-44h-604v44z" />
<glyph unicode="`" horiz-adv-x="500" d="M157 698l61 30l88 -133h-42z" />
<glyph unicode="a" horiz-adv-x="574" d="M251 34q39 0 74 11.5t61.5 32t42 49.5t15.5 64v58q-32 8 -75 15.5t-98 7.5q-81 0 -124.5 -32.5t-43.5 -86.5v-2q0 -28 12 -49.5t32.5 -36.5t47.5 -23t56 -8zM248 -12q-36 0 -71 10t-63 30t-45.5 50t-17.5 70v2q0 40 16.5 71t45.5 52t70 32t91 11q54 0 93 -6t76 -16v22 q0 78 -44.5 117t-123.5 39q-47 0 -86 -11.5t-74 -29.5l-18 43q42 20 85 32t96 12q105 0 161 -56q52 -52 52 -144v-318h-48v85q-13 -18 -31.5 -35.5t-42.5 -31t-54.5 -22t-66.5 -8.5z" />
<glyph unicode="b" horiz-adv-x="660" d="M347 35q42 0 78.5 15t63.5 43t42.5 68.5t15.5 91.5v2q0 50 -16 91t-43.5 69.5t-64 44t-76.5 15.5t-77.5 -16t-66.5 -45t-46.5 -69t-17.5 -89v-2q0 -49 17.5 -89.5t46.5 -69t66.5 -44.5t77.5 -16zM352 -12q-38 0 -70 10t-57.5 27t-46 39t-36.5 46v-110h-49v730h49v-334 q16 25 37 48t46.5 40t57 27.5t69.5 10.5q46 0 90.5 -18t79.5 -52t56.5 -83.5t21.5 -111.5v-2q0 -62 -21.5 -111.5t-56.5 -84t-79.5 -53t-90.5 -18.5z" />
<glyph unicode="c" horiz-adv-x="571" d="M318 -12q-55 0 -102.5 21.5t-82.5 57.5t-55 84t-20 102v2q0 54 20 102t55 85t82.5 58.5t102.5 21.5q36 0 65.5 -7.5t54.5 -20.5t45.5 -30t38.5 -36l-35 -36q-33 34 -73 59t-97 25q-44 0 -81.5 -17t-65 -46.5t-43.5 -69.5t-16 -86v-2q0 -46 16.5 -86.5t45 -70.5t66.5 -47 t82 -17q54 0 96.5 24.5t74.5 60.5l34 -30q-39 -44 -88.5 -72.5t-119.5 -28.5z" />
<glyph unicode="d" horiz-adv-x="660" d="M313 35q40 0 77.5 16t66.5 45t46.5 69t17.5 89v2q0 49 -17.5 89.5t-46.5 69t-66.5 44.5t-77.5 16q-42 0 -78.5 -15t-63.5 -43t-42.5 -68.5t-15.5 -91.5v-2q0 -50 16 -91t43.5 -69.5t64 -44t76.5 -15.5zM308 -12q-46 0 -90.5 18t-79.5 52t-56.5 83.5t-21.5 111.5v2 q0 62 21.5 111.5t56.5 84t79.5 53t90.5 18.5q38 0 70 -10t57.5 -27t46 -39t36.5 -46v330h49v-730h-49v114q-17 -25 -37.5 -48t-46 -40t-57 -27.5t-69.5 -10.5z" />
<glyph unicode="e" horiz-adv-x="584" d="M481 279q-3 39 -15.5 74.5t-35 63t-55.5 44t-77 16.5q-38 0 -71 -15t-57.5 -41.5t-40.5 -63t-19 -78.5h371zM308 -12q-50 0 -95.5 19t-80 54t-54.5 84t-20 109v2q0 55 18.5 103.5t51 84.5t76.5 57t96 21q54 0 97 -20.5t73.5 -56.5t47 -84.5t16.5 -105.5v-10.5t-1 -9.5 h-423q3 -48 21 -85t45 -63t61.5 -39.5t72.5 -13.5q60 0 101.5 23t73.5 57l34 -30q-39 -42 -88.5 -69t-122.5 -27z" />
<glyph unicode="f" horiz-adv-x="362" d="M123 465h-74v45h74v50q0 88 45 133q40 40 107 40q23 0 41 -3t35 -9v-46q-22 7 -39 10t-37 3q-103 0 -103 -129v-49h178v-45h-178v-465h-49v465z" />
<glyph unicode="g" horiz-adv-x="660" d="M310 85q40 0 78 14t67.5 39.5t47.5 61t18 79.5v2q0 44 -18 80t-47.5 61.5t-67.5 39t-78 13.5t-76 -13.5t-63 -38.5t-42.5 -60.5t-15.5 -80.5v-2q0 -43 16 -79t43 -61.5t63 -40t75 -14.5zM317 -162q-129 0 -234 78l29 40q93 -72 206 -72q44 0 80.5 12.5t63 37.5t41.5 62 t15 86v74q-17 -24 -38 -45t-47 -37.5t-58 -26t-70 -9.5q-46 0 -90 17t-78.5 48.5t-55.5 75.5t-21 99v2q0 55 21 100t55.5 76.5t78.5 48.5t90 17q38 0 70.5 -9.5t58.5 -25t47 -36.5t37 -43v102h49v-431q0 -56 -17 -99t-48 -74q-33 -33 -80.5 -50.5t-104.5 -17.5z" />
<glyph unicode="h" horiz-adv-x="613" d="M93 730h49v-315q26 45 70 76t114 31q48 0 86 -15.5t64.5 -43.5t40 -66.5t13.5 -84.5v-312h-49v303q0 79 -42 126.5t-120 47.5q-38 0 -70 -13.5t-56 -37.5t-37.5 -57.5t-13.5 -73.5v-295h-49v730z" />
<glyph unicode="i" horiz-adv-x="249" d="M100 510h49v-510h-49v510zM94 710h61v-67h-61v67z" />
<glyph unicode="j" horiz-adv-x="249" d="M40 -163q-21 0 -41 4v43q9 -2 20.5 -2.5t19.5 -0.5q27 0 44 17.5t17 53.5v558h49v-555q0 -60 -29.5 -89t-79.5 -29zM94 710h61v-67h-61v67z" />
<glyph unicode="k" horiz-adv-x="560" d="M93 730h49v-547l316 327h65l-223 -226l230 -284h-62l-202 249l-124 -125v-124h-49v730z" />
<glyph unicode="l" horiz-adv-x="249" d="M100 730h49v-730h-49v730z" />
<glyph unicode="m" horiz-adv-x="951" d="M93 510h49v-91q12 20 27.5 38.5t35.5 33t46.5 23t60.5 8.5q33 0 60.5 -9t48.5 -24t36.5 -35t26.5 -42q12 21 29 41t39.5 35.5t51 24.5t64.5 9q45 0 81.5 -15.5t62 -43t39 -67t13.5 -87.5v-309h-49v303q0 83 -40 128.5t-111 45.5q-32 0 -61.5 -12t-51.5 -35t-35 -56.5 t-13 -76.5v-297h-49v306q0 80 -40 125.5t-109 45.5q-34 0 -64 -14t-52 -39t-34.5 -58t-12.5 -72v-294h-49v510z" />
<glyph unicode="n" horiz-adv-x="613" d="M93 510h49v-95q26 45 70 76t114 31q48 0 86 -15.5t64.5 -43.5t40 -66.5t13.5 -84.5v-312h-49v303q0 79 -42 126.5t-120 47.5q-38 0 -70 -13.5t-56 -37.5t-37.5 -57.5t-13.5 -73.5v-295h-49v510z" />
<glyph unicode="o" d="M321 34q45 0 83.5 17.5t66 47t43 69.5t15.5 85v2q0 46 -16 86.5t-44.5 70.5t-67 47t-82.5 17q-45 0 -83.5 -17.5t-66 -47t-43 -69.5t-15.5 -85v-2q0 -46 16 -86.5t44.5 -70.5t67 -47t82.5 -17zM319 -12q-57 0 -104.5 21.5t-82.5 57.5t-54.5 84t-19.5 102v2q0 54 19.5 102 t55 85t83.5 58.5t105 21.5t104.5 -21.5t82.5 -57.5t54.5 -84t19.5 -102v-2q0 -54 -19.5 -102t-55 -85t-83.5 -58.5t-105 -21.5z" />
<glyph unicode="p" horiz-adv-x="660" d="M347 35q42 0 78.5 15t63.5 43t42.5 68.5t15.5 91.5v2q0 50 -16 91t-43.5 69.5t-64 44t-76.5 15.5t-77.5 -16t-66.5 -45t-46.5 -69t-17.5 -89v-2q0 -49 17.5 -89.5t46.5 -69t66.5 -44.5t77.5 -16zM93 510h49v-114q16 25 37 48t46.5 40t57 27.5t69.5 10.5q46 0 90.5 -18 t79.5 -52t56.5 -83.5t21.5 -111.5v-2q0 -62 -21.5 -111.5t-56.5 -84t-79.5 -53t-90.5 -18.5q-38 0 -70 10t-57.5 27t-46 39t-36.5 46v-270h-49v670z" />
<glyph unicode="q" horiz-adv-x="660" d="M313 35q40 0 77.5 16t66.5 45t46.5 69t17.5 89v2q0 49 -17.5 89.5t-46.5 69t-66.5 44.5t-77.5 16q-42 0 -78.5 -15t-63.5 -43t-42.5 -68.5t-15.5 -91.5v-2q0 -50 16 -91t43.5 -69.5t64 -44t76.5 -15.5zM518 114q-17 -25 -37.5 -48t-46 -40t-57 -27.5t-69.5 -10.5 q-46 0 -90.5 18t-79.5 52t-56.5 83.5t-21.5 111.5v2q0 62 21.5 111.5t56.5 84t79.5 53t90.5 18.5q38 0 70 -10t57.5 -27t46 -39t36.5 -46v110h49v-670h-49v274z" />
<glyph unicode="r" horiz-adv-x="400" d="M93 510h49v-145q15 34 38 63t52 49.5t63.5 31t72.5 9.5v-54h-5q-44 0 -84 -16.5t-70.5 -49t-48.5 -80t-18 -109.5v-209h-49v510z" />
<glyph unicode="s" horiz-adv-x="497" d="M258 -10q-56 0 -112 20.5t-97 53.5l29 39q42 -32 88 -49.5t95 -17.5q52 0 87.5 26t35.5 71v2q0 22 -11 38t-30 28t-43 20t-51 16q-31 9 -62.5 19t-56.5 25.5t-40.5 38.5t-15.5 57v2q0 31 12.5 56.5t34.5 44.5t53 29.5t68 10.5q46 0 94.5 -15t86.5 -41l-26 -41 q-35 23 -75.5 37t-81.5 14q-53 0 -84.5 -25.5t-31.5 -63.5v-2q0 -21 12 -36.5t31.5 -26.5t45.5 -19.5t53 -16.5q31 -9 61 -19.5t54 -27t38.5 -39.5t14.5 -57v-2q0 -34 -13.5 -61.5t-37.5 -47t-56 -30t-69 -10.5z" />
<glyph unicode="t" horiz-adv-x="400" d="M263 -9q-30 0 -56 8t-45.5 25.5t-30.5 44t-11 62.5v334h-74v45h74v163h49v-163h179v-45h-179v-329q0 -55 28.5 -77t73.5 -22q19 0 36 4t39 14v-46q-20 -9 -39.5 -13.5t-43.5 -4.5z" />
<glyph unicode="u" horiz-adv-x="613" d="M287 -12q-48 0 -86 15.5t-64.5 43.5t-40 66.5t-13.5 84.5v312h49v-303q0 -79 42 -126.5t120 -47.5q37 0 69.5 13.5t56.5 37.5t37.5 57.5t13.5 73.5v295h49v-510h-49v95q-26 -45 -70 -76t-114 -31z" />
<glyph unicode="v" horiz-adv-x="582" d="M41 510h57l193 -455l195 455h55l-229 -514h-42z" />
<glyph unicode="w" horiz-adv-x="861" d="M49 510h55l154 -448l154 450h39l154 -450l154 448h53l-187 -514h-42l-152 437l-153 -437h-42z" />
<glyph unicode="x" horiz-adv-x="570" d="M254 260l-201 250h61l172 -216l172 216h59l-201 -249l209 -261h-61l-180 227l-180 -227h-59z" />
<glyph unicode="y" horiz-adv-x="588" d="M155 -163q-29 0 -52 5.5t-49 16.5l17 43q20 -10 39 -14.5t48 -4.5q20 0 37 6t32 20.5t29 37.5t28 56l-245 507h57l212 -456l184 456h54l-221 -528q-34 -80 -74.5 -112.5t-95.5 -32.5z" />
<glyph unicode="z" horiz-adv-x="554" d="M58 28l368 438h-354v44h427v-28l-368 -438h368v-44h-441v28z" />
<glyph unicode="{" horiz-adv-x="480" d="M416 -141q-67 13 -108.5 31.5t-64 43.5t-30.5 57t-8 71v79q0 29 -5.5 52.5t-19 40t-37 25.5t-58.5 9h-26v38h26q35 0 58.5 9t37 25.5t19 40t5.5 52.5v79q0 39 8 71t30.5 57t64 43.5t108.5 31.5l7 -32q-57 -15 -91 -30t-51 -35t-22 -47t-5 -65v-75q0 -33 -7.5 -57t-21 -41 t-32.5 -28t-43 -18q25 -8 44.5 -19t32.5 -27.5t20 -40.5t7 -57v-75q0 -38 5 -65t22 -47t51 -35t91 -30z" />
<glyph unicode="|" horiz-adv-x="286" d="M121 798h44v-926h-44v926z" />
<glyph unicode="}" horiz-adv-x="480" d="M57 -109q57 15 91 30t51 35t22 47t5 65v75q0 33 7.5 57t21 41t32.5 28t43 18q-25 8 -44.5 19t-32.5 27.5t-20 40.5t-7 57v75q0 38 -5 65t-22 47t-51 35t-91 30l7 32q67 -13 108.5 -31.5t64 -43.5t30.5 -57t8 -71v-79q0 -29 5.5 -52.5t19 -40t37 -25.5t58.5 -9h26v-38h-26 q-35 0 -58.5 -9t-37 -25.5t-19 -40t-5.5 -52.5v-79q0 -39 -8 -71t-30.5 -57t-64 -43.5t-108.5 -31.5z" />
<glyph unicode="~" horiz-adv-x="460" d="M82 251q14 54 34 73.5t50 19.5q14 0 31 -6.5t34.5 -14t33.5 -14t29 -6.5q18 0 28.5 10.5t21.5 39.5l34 -9q-14 -54 -34 -73.5t-50 -19.5q-14 0 -31 6.5t-34.5 14t-33.5 14t-29 6.5q-18 0 -28.5 -10.5t-21.5 -39.5z" />
<glyph unicode="&#xa1;" horiz-adv-x="252" d="M97 70l15 447h28l15 -447v-70h-58v70zM93 700h66v-85h-66v85z" />
<glyph unicode="&#xa2;" horiz-adv-x="581" d="M330 576h-9q-44 0 -81.5 -17t-65 -46.5t-43.5 -69.5t-16 -86v-2q0 -71 37 -126.5t96 -79.5zM236 103q-39 13 -71 38t-55 58t-35.5 72.5t-12.5 81.5v2q0 54 20 102t55 85t82.5 58.5t102.5 21.5h15l16 84h50l-18 -91q46 -11 79.5 -34.5t61.5 -52.5l-35 -36q-25 26 -53 47 t-65 30l-83 -432q16 -3 35 -3q54 0 96.5 24.5t74.5 60.5l34 -30q-39 -44 -88.5 -72.5t-119.5 -28.5q-20 0 -39 3l-19 -97h-50z" />
<glyph unicode="&#xa3;" horiz-adv-x="644" d="M70 25l86 20v260h-86v48h86v118q0 57 16.5 103t48.5 78q28 28 66 43t84 15q39 0 70 -8t56.5 -22.5t46 -34t37.5 -41.5l-40 -31q-15 19 -32 35.5t-37.5 28.5t-45.5 19t-56 7q-70 0 -113 -43q-50 -50 -50 -148v-119h298v-48h-298v-258h374v-47h-511v25z" />
<glyph unicode="&#xa4;" horiz-adv-x="720" d="M428 -12q-52 0 -97 18.5t-81.5 52.5t-62 81.5t-38.5 104.5h-90v48h83q-3 27 -3 55v2q0 17 1.5 34.5t3.5 31.5h-85v48h94q13 54 38.5 99.5t60.5 78.5t78 51.5t91 18.5q44 0 79.5 -10.5t64.5 -29.5t52.5 -44.5t43.5 -55.5l-40 -27q-20 29 -41 51.5t-45 38t-52 23.5t-64 8 q-38 0 -71.5 -15t-61.5 -42t-49 -64t-33 -81h284v-48h-293q-2 -14 -3.5 -30.5t-1.5 -33.5v-2q0 -29 3 -57h295v-48h-286q12 -47 33.5 -86t51 -66.5t66 -43t78.5 -15.5q65 0 111 35.5t83 92.5l38 -25q-20 -31 -44 -58t-52.5 -47.5t-62.5 -32t-76 -11.5z" />
<glyph unicode="&#xa5;" horiz-adv-x="686" d="M318 125h-213v45h213v98h-213v45h195l-268 387h63l249 -373l250 373h60l-269 -387h196v-45h-213v-98h213v-45h-213v-125h-50v125z" />
<glyph unicode="&#xa7;" horiz-adv-x="632" d="M386 253q29 0 53 6.5t41 17.5t26 25t9 29v2q0 13 -7 26t-24.5 25t-48 23.5t-77.5 23.5q-36 9 -63.5 12.5t-48.5 3.5q-29 0 -53 -6.5t-41 -17.5t-26 -25t-9 -29v-2q0 -14 7 -26.5t24.5 -24.5t48 -23.5t77.5 -23.5q35 -9 63 -12.5t49 -3.5zM329 -10q-67 0 -126 26.5 t-101 68.5l38 36q35 -35 84.5 -58.5t109.5 -23.5t88 22.5t28 54.5v2q0 16 -9.5 30t-31 26.5t-56.5 25t-86 24.5q-56 13 -94.5 27.5t-62.5 31t-34.5 36.5t-10.5 44v2q0 45 40 75t108 38q-39 17 -62.5 43.5t-23.5 61.5v2q0 57 48 91t128 34q67 0 126 -26.5t101 -68.5l-38 -36 q-35 35 -84.5 58.5t-109.5 23.5t-88 -22.5t-28 -54.5v-2q0 -16 9.5 -30t31 -27t56.5 -25t86 -24q56 -14 94.5 -28t62.5 -30.5t34.5 -36.5t10.5 -44v-2q0 -45 -40 -75t-108 -38q39 -17 62.5 -43.5t23.5 -61.5v-2q0 -57 -48 -91t-128 -34z" />
<glyph unicode="&#xa8;" horiz-adv-x="500" d="M134 675h69v-80h-69v80zM297 675h69v-80h-69v80z" />
<glyph unicode="&#xa9;" horiz-adv-x="830" d="M419 166q-39 0 -72 15t-57.5 40.5t-38.5 59.5t-14 73v2q0 38 14 72.5t39 60.5t58 41t72 15q49 0 81 -17.5t60 -43.5l-30 -31q-22 21 -49.5 36.5t-62.5 15.5q-30 0 -55 -11.5t-43.5 -32t-29 -47.5t-10.5 -57v-2q0 -30 11 -57.5t29.5 -47.5t44 -32t54.5 -12q37 0 63 13.5 t52 38.5l28 -28q-29 -29 -62 -46.5t-82 -17.5zM414 16q71 0 132 26.5t105.5 72t70 106t25.5 129.5v2q0 69 -25 129.5t-69.5 105.5t-105 71t-131.5 26t-132 -26.5t-105.5 -72t-70 -106t-25.5 -129.5v-2q0 -69 25 -129.5t69.5 -105.5t105 -71t131.5 -26zM414 -12 q-76 0 -142 28.5t-114.5 77.5t-76.5 114.5t-28 139.5v2q0 74 28 139.5t77 115t115.5 78.5t142.5 29t142 -28.5t114.5 -77.5t76.5 -114.5t28 -139.5v-2q0 -74 -28 -139.5t-77 -115t-115.5 -78.5t-142.5 -29z" />
<glyph unicode="&#xaa;" horiz-adv-x="390" d="M176 447q19 0 36.5 5.5t30.5 15.5t21 24.5t8 31.5v27q-17 5 -37 8t-48 3q-38 0 -60 -16t-22 -41v-2q0 -27 21 -41.5t50 -14.5zM62 333h252v-40h-252v40zM174 411q-20 0 -39.5 5.5t-35 17t-25 28t-9.5 39.5v2q0 45 34.5 69t89.5 24q27 0 46.5 -3t36.5 -8v5 q0 38 -22.5 57.5t-60.5 19.5q-24 0 -44.5 -6.5t-43.5 -17.5l-13 34q26 12 50 19t53 7q58 0 90 -32q28 -28 28 -80v-174h-37v41q-17 -22 -41.5 -34.5t-56.5 -12.5z" />
<glyph unicode="&#xab;" horiz-adv-x="515" d="M51 251v8l160 209l37 -24l-137 -188l137 -190l-37 -24zM255 251v8l160 209l37 -24l-137 -188l137 -190l-37 -24z" />
<glyph unicode="&#xad;" horiz-adv-x="408" d="M70 325h268v-56h-268v56z" />
<glyph unicode="&#xae;" horiz-adv-x="830" d="M433 364q42 0 69.5 17.5t27.5 52.5v2q0 30 -24.5 48t-67.5 18h-119v-138h114zM276 543h164q34 0 62 -10t45 -27q12 -12 20 -29.5t8 -38.5v-2q0 -45 -27.5 -71t-72.5 -34l122 -154h-56l-116 147h-2h-104v-147h-43v366zM414 16q71 0 132 26.5t105.5 72t70 106t25.5 129.5v2 q0 69 -25 129.5t-69.5 105.5t-105 71t-131.5 26t-132 -26.5t-105.5 -72t-70 -106t-25.5 -129.5v-2q0 -69 25 -129.5t69.5 -105.5t105 -71t131.5 -26zM414 -12q-76 0 -142 28.5t-114.5 77.5t-76.5 114.5t-28 139.5v2q0 74 28 139.5t77 115t115.5 78.5t142.5 29t142 -28.5 t114.5 -77.5t76.5 -114.5t28 -139.5v-2q0 -74 -28 -139.5t-77 -115t-115.5 -78.5t-142.5 -29z" />
<glyph unicode="&#xaf;" horiz-adv-x="500" d="M100 653h300v-53h-300v53z" />
<glyph unicode="&#xb0;" horiz-adv-x="450" d="M225 456q22 0 40.5 8.5t32 22.5t21 32.5t7.5 38.5v2q0 20 -7.5 38.5t-21 32.5t-32 22.5t-40.5 8.5t-40.5 -8.5t-32 -22.5t-21 -32.5t-7.5 -38.5v-2q0 -20 7.5 -38.5t21 -32.5t32 -22.5t40.5 -8.5zM225 412q-30 0 -57 12t-48 32t-33.5 46.5t-12.5 55.5v2q0 29 12.5 55.5 t33.5 46.5t48 32t57 12t57 -12t48 -32t33.5 -46.5t12.5 -55.5v-2q0 -29 -12.5 -55.5t-33.5 -46.5t-48 -32t-57 -12z" />
<glyph unicode="&#xb1;" horiz-adv-x="600" d="M303 -12q-85 0 -150.5 36.5t-107.5 92.5l42 31q39 -52 93 -82.5t125 -30.5q38 0 70.5 10.5t56.5 30t37.5 47t13.5 60.5v2q0 68 -54 106.5t-153 38.5h-70v46h71q40 0 74 10t59 28.5t39.5 45.5t14.5 62v2q0 30 -12 56t-34 45t-53 29.5t-69 10.5q-64 0 -110.5 -27.5 t-84.5 -79.5l-40 24q40 59 98 94.5t139 35.5q48 0 88 -14t69.5 -39t46 -59t16.5 -74v-2q0 -36 -11.5 -63.5t-30.5 -47.5t-43 -33.5t-48 -21.5q32 -9 60 -24.5t48.5 -36.5t32 -49t11.5 -62v-2q0 -41 -17.5 -76.5t-48.5 -62t-74 -42t-94 -15.5z" />
<glyph unicode="&#xb4;" horiz-adv-x="500" d="M282 728l61 -30l-107 -103h-42z" />
<glyph unicode="&#xb6;" horiz-adv-x="480" d="M333 277h-6q-58 0 -108 14t-87 41t-58 66t-21 90v2q0 49 19 88t53.5 66t82 41.5t104.5 14.5h74v-700h-53v277z" />
<glyph unicode="&#xb7;" horiz-adv-x="230" d="M82 340h66v-85h-66v85z" />
<glyph unicode="&#xb8;" horiz-adv-x="500" d="M162 -122l90 132h43l-78 -158z" />
<glyph unicode="&#xba;" horiz-adv-x="390" d="M196 450q45 0 72.5 31t27.5 75v2q0 22 -8 42t-21.5 34.5t-32 23t-40.5 8.5q-45 0 -72.5 -31t-27.5 -75v-2q0 -23 8 -42.5t21.5 -34t32 -23t40.5 -8.5zM51 333h288v-40h-288v40zM194 411q-31 0 -57.5 11.5t-45.5 31.5t-29.5 46.5t-10.5 55.5v2q0 30 11 56.5t30 46.5 t45.5 32t58.5 12q31 0 57.5 -11.5t45.5 -31.5t29.5 -46.5t10.5 -55.5v-2q0 -30 -11 -56.5t-30 -46.5t-46 -32t-58 -12z" />
<glyph unicode="&#xbb;" horiz-adv-x="515" d="M63 66l137 188l-137 190l37 24l160 -209v-8l-160 -209zM267 66l137 188l-137 190l37 24l160 -209v-8l-160 -209z" />
<glyph unicode="&#xbf;" horiz-adv-x="534" d="M269 -9q-50 0 -90 15.5t-68 42t-43.5 62t-15.5 75.5v2q0 46 17 82t45.5 61.5t67 40.5t82.5 20l9 125h32l13 -162l-5 -5q-100 -2 -154 -45t-54 -115v-2q0 -31 11.5 -58.5t33 -48t52.5 -32.5t69 -12q60 0 107 27.5t86 75.5l36 -30q-21 -27 -45 -48.5t-52 -37.5t-61 -24.5 t-73 -8.5zM256 700h66v-85h-66v85z" />
<glyph unicode="&#xc0;" horiz-adv-x="790" d="M263 868l61 30l88 -133h-42zM578 243l-184 405l-185 -405h369zM370 705h50l326 -705h-57l-89 196h-413l-89 -196h-54z" />
<glyph unicode="&#xc1;" horiz-adv-x="790" d="M466 898l61 -30l-107 -103h-42zM578 243l-184 405l-185 -405h369zM370 705h50l326 -705h-57l-89 196h-413l-89 -196h-54z" />
<glyph unicode="&#xc2;" horiz-adv-x="790" d="M375 882h40l100 -122h-47l-74 68l-74 -68h-45zM578 243l-184 405l-185 -405h369zM370 705h50l326 -705h-57l-89 196h-413l-89 -196h-54z" />
<glyph unicode="&#xc3;" horiz-adv-x="790" d="M247 765q14 54 34 73.5t50 19.5q14 0 31 -6.5t34.5 -14t33.5 -14t29 -6.5q18 0 28.5 10.5t21.5 39.5l34 -9q-14 -54 -34 -73.5t-50 -19.5q-14 0 -31 6.5t-34.5 14t-33.5 14t-29 6.5q-18 0 -28.5 -10.5t-21.5 -39.5zM578 243l-184 405l-185 -405h369zM370 705h50l326 -705 h-57l-89 196h-413l-89 -196h-54z" />
<glyph unicode="&#xc4;" horiz-adv-x="790" d="M279 845h69v-80h-69v80zM442 845h69v-80h-69v80zM578 243l-184 405l-185 -405h369zM370 705h50l326 -705h-57l-89 196h-413l-89 -196h-54z" />
<glyph unicode="&#xc5;" horiz-adv-x="790" d="M578 243l-184 405l-185 -405h369zM395 702q25 0 43.5 18t18.5 43v2q0 25 -18 43t-44 18t-44 -18t-18 -43v-2q0 -25 18.5 -43t43.5 -18zM357 677q-26 11 -43 34t-17 52v2q0 19 8 36t21.5 29.5t31 20t37.5 7.5q19 0 37 -7.5t31.5 -20t21.5 -29.5t8 -36v-2q0 -29 -17 -51.5 t-43 -33.5l313 -678h-57l-89 196h-413l-89 -196h-54z" />
<glyph unicode="&#xc6;" horiz-adv-x="1045" d="M494 243v410h-26l-246 -410h272zM444 700h533v-48h-431v-275h386v-48h-386v-281h436v-48h-488v196h-300l-118 -196h-56z" />
<glyph unicode="&#xc7;" horiz-adv-x="738" d="M312 -122l76 111q-69 6 -126.5 36.5t-99.5 78.5t-65.5 110.5t-23.5 133.5v2q0 74 26.5 140t73 115.5t110.5 78t140 28.5q47 0 85 -8t70.5 -23t61 -35.5t55.5 -45.5l-37 -38q-23 22 -48 41t-53.5 32.5t-62 21.5t-72.5 8q-63 0 -117 -24t-93.5 -66.5t-62 -99.5t-22.5 -123 v-2q0 -66 23 -123.5t62.5 -100t93.5 -67t117 -24.5q76 0 132 28t109 81l35 -34q-27 -26 -55 -48t-60 -38t-69 -25.5t-81 -10.5l-67 -136z" />
<glyph unicode="&#xc8;" horiz-adv-x="670" d="M242 868l61 30l88 -133h-42zM104 700h498v-48h-446v-275h401v-48h-401v-281h451v-48h-503v700z" />
<glyph unicode="&#xc9;" horiz-adv-x="670" d="M397 898l61 -30l-107 -103h-42zM104 700h498v-48h-446v-275h401v-48h-401v-281h451v-48h-503v700z" />
<glyph unicode="&#xca;" horiz-adv-x="670" d="M329 887h40l100 -122h-47l-74 68l-74 -68h-45zM104 700h498v-48h-446v-275h401v-48h-401v-281h451v-48h-503v700z" />
<glyph unicode="&#xcb;" horiz-adv-x="670" d="M233 845h69v-80h-69v80zM396 845h69v-80h-69v80zM104 700h498v-48h-446v-275h401v-48h-401v-281h451v-48h-503v700z" />
<glyph unicode="&#xcc;" horiz-adv-x="274" d="M7 868l61 30l88 -133h-42zM111 700h52v-700h-52v700z" />
<glyph unicode="&#xcd;" horiz-adv-x="274" d="M206 898l61 -30l-107 -103h-42zM111 700h52v-700h-52v700z" />
<glyph unicode="&#xce;" horiz-adv-x="274" d="M118 887h40l100 -122h-47l-74 68l-74 -68h-45zM111 700h52v-700h-52v700z" />
<glyph unicode="&#xcf;" horiz-adv-x="274" d="M22 845h69v-80h-69v80zM185 845h69v-80h-69v80zM111 700h52v-700h-52v700z" />
<glyph unicode="&#xd0;" horiz-adv-x="812" d="M367 48q73 0 132 23.5t100 64t63.5 95t22.5 117.5v2q0 62 -22.5 117t-63.5 96t-100 65t-132 24h-181v-276h232v-48h-232v-280h181zM134 328h-75v48h75v324h233q82 0 150.5 -26.5t118 -73.5t76.5 -110.5t27 -137.5v-2q0 -74 -27 -138t-76.5 -111t-118 -74t-150.5 -27h-233 v328z" />
<glyph unicode="&#xd1;" horiz-adv-x="790" d="M247 765q14 54 34 73.5t50 19.5q14 0 31 -6.5t34.5 -14t33.5 -14t29 -6.5q18 0 28.5 10.5t21.5 39.5l34 -9q-14 -54 -34 -73.5t-50 -19.5q-14 0 -31 6.5t-34.5 14t-33.5 14t-29 6.5q-18 0 -28.5 -10.5t-21.5 -39.5zM104 700h49l483 -609v609h50v-700h-39l-493 622v-622 h-50v700z" />
<glyph unicode="&#xd2;" horiz-adv-x="850" d="M292 868l61 30l88 -133h-42zM426 35q65 0 119.5 24.5t94 67t61.5 99.5t22 122v2q0 65 -22.5 122.5t-62 100t-94.5 67.5t-120 25t-119.5 -24.5t-94 -67t-61.5 -99.5t-22 -122v-2q0 -65 22.5 -122.5t62 -100t94.5 -67.5t120 -25zM424 -12q-80 0 -144.5 29.5t-110.5 79 t-71 114.5t-25 137v2q0 72 25.5 137.5t71.5 115.5t111 79.5t145 29.5q79 0 144 -29.5t111 -79t71 -114.5t25 -137q1 -1 0 -2q0 -72 -25.5 -137.5t-71.5 -115.5t-111.5 -79.5t-144.5 -29.5z" />
<glyph unicode="&#xd3;" horiz-adv-x="850" d="M497 898l61 -30l-107 -103h-42zM426 35q65 0 119.5 24.5t94 67t61.5 99.5t22 122v2q0 65 -22.5 122.5t-62 100t-94.5 67.5t-120 25t-119.5 -24.5t-94 -67t-61.5 -99.5t-22 -122v-2q0 -65 22.5 -122.5t62 -100t94.5 -67.5t120 -25zM424 -12q-80 0 -144.5 29.5t-110.5 79 t-71 114.5t-25 137v2q0 72 25.5 137.5t71.5 115.5t111 79.5t145 29.5q79 0 144 -29.5t111 -79t71 -114.5t25 -137q1 -1 0 -2q0 -72 -25.5 -137.5t-71.5 -115.5t-111.5 -79.5t-144.5 -29.5z" />
<glyph unicode="&#xd4;" horiz-adv-x="850" d="M405 887h40l100 -122h-47l-74 68l-74 -68h-45zM426 35q65 0 119.5 24.5t94 67t61.5 99.5t22 122v2q0 65 -22.5 122.5t-62 100t-94.5 67.5t-120 25t-119.5 -24.5t-94 -67t-61.5 -99.5t-22 -122v-2q0 -65 22.5 -122.5t62 -100t94.5 -67.5t120 -25zM424 -12 q-80 0 -144.5 29.5t-110.5 79t-71 114.5t-25 137v2q0 72 25.5 137.5t71.5 115.5t111 79.5t145 29.5q79 0 144 -29.5t111 -79t71 -114.5t25 -137q1 -1 0 -2q0 -72 -25.5 -137.5t-71.5 -115.5t-111.5 -79.5t-144.5 -29.5z" />
<glyph unicode="&#xd5;" horiz-adv-x="850" d="M277 765q14 54 34 73.5t50 19.5q14 0 31 -6.5t34.5 -14t33.5 -14t29 -6.5q18 0 28.5 10.5t21.5 39.5l34 -9q-14 -54 -34 -73.5t-50 -19.5q-14 0 -31 6.5t-34.5 14t-33.5 14t-29 6.5q-18 0 -28.5 -10.5t-21.5 -39.5zM426 35q65 0 119.5 24.5t94 67t61.5 99.5t22 122v2 q0 65 -22.5 122.5t-62 100t-94.5 67.5t-120 25t-119.5 -24.5t-94 -67t-61.5 -99.5t-22 -122v-2q0 -65 22.5 -122.5t62 -100t94.5 -67.5t120 -25zM424 -12q-80 0 -144.5 29.5t-110.5 79t-71 114.5t-25 137v2q0 72 25.5 137.5t71.5 115.5t111 79.5t145 29.5q79 0 144 -29.5 t111 -79t71 -114.5t25 -137q1 -1 0 -2q0 -72 -25.5 -137.5t-71.5 -115.5t-111.5 -79.5t-144.5 -29.5z" />
<glyph unicode="&#xd6;" horiz-adv-x="850" d="M309 845h69v-80h-69v80zM472 845h69v-80h-69v80zM426 35q65 0 119.5 24.5t94 67t61.5 99.5t22 122v2q0 65 -22.5 122.5t-62 100t-94.5 67.5t-120 25t-119.5 -24.5t-94 -67t-61.5 -99.5t-22 -122v-2q0 -65 22.5 -122.5t62 -100t94.5 -67.5t120 -25zM424 -12 q-80 0 -144.5 29.5t-110.5 79t-71 114.5t-25 137v2q0 72 25.5 137.5t71.5 115.5t111 79.5t145 29.5q79 0 144 -29.5t111 -79t71 -114.5t25 -137q1 -1 0 -2q0 -72 -25.5 -137.5t-71.5 -115.5t-111.5 -79.5t-144.5 -29.5z" />
<glyph unicode="&#xd8;" horiz-adv-x="850" d="M426 35q65 0 119.5 24.5t94 67t61.5 99.5t22 122v2q0 60 -19.5 114t-54.5 96l-419 -450q38 -35 88 -55t108 -20zM620 590q-38 35 -88 55t-108 20q-65 0 -119.5 -24.5t-94 -67t-61.5 -99.5t-22 -122v-2q0 -60 19.5 -114t54.5 -96zM424 -12q-69 0 -126 22t-102 60l-71 -75 h-60l100 106q-45 50 -68.5 113.5t-23.5 133.5v2q0 72 25.5 137.5t71.5 115.5t111 79.5t145 29.5q69 0 126 -22t102 -61l71 76h60l-100 -106q45 -50 68.5 -113.5t23.5 -133.5q1 -1 0 -2q0 -72 -25.5 -137.5t-71.5 -115.5t-111.5 -79.5t-144.5 -29.5z" />
<glyph unicode="&#xd9;" horiz-adv-x="760" d="M256 863l61 30l88 -133h-42zM380 -11q-63 0 -115.5 19.5t-91 58t-59.5 94.5t-21 130v409h52v-404q0 -125 62.5 -192.5t174.5 -67.5q53 0 96 16t73.5 48t47 80t16.5 111v409h52v-403q0 -75 -21 -132.5t-59 -96.5t-90.5 -59t-116.5 -20z" />
<glyph unicode="&#xda;" horiz-adv-x="760" d="M443 893l61 -30l-107 -103h-42zM380 -11q-63 0 -115.5 19.5t-91 58t-59.5 94.5t-21 130v409h52v-404q0 -125 62.5 -192.5t174.5 -67.5q53 0 96 16t73.5 48t47 80t16.5 111v409h52v-403q0 -75 -21 -132.5t-59 -96.5t-90.5 -59t-116.5 -20z" />
<glyph unicode="&#xdb;" horiz-adv-x="760" d="M360 882h40l100 -122h-47l-74 68l-74 -68h-45zM380 -11q-63 0 -115.5 19.5t-91 58t-59.5 94.5t-21 130v409h52v-404q0 -125 62.5 -192.5t174.5 -67.5q53 0 96 16t73.5 48t47 80t16.5 111v409h52v-403q0 -75 -21 -132.5t-59 -96.5t-90.5 -59t-116.5 -20z" />
<glyph unicode="&#xdc;" horiz-adv-x="760" d="M264 840h69v-80h-69v80zM427 840h69v-80h-69v80zM380 -11q-63 0 -115.5 19.5t-91 58t-59.5 94.5t-21 130v409h52v-404q0 -125 62.5 -192.5t174.5 -67.5q53 0 96 16t73.5 48t47 80t16.5 111v409h52v-403q0 -75 -21 -132.5t-59 -96.5t-90.5 -59t-116.5 -20z" />
<glyph unicode="&#xdd;" horiz-adv-x="716" d="M428 893l61 -30l-107 -103h-42zM332 277l-300 423h65l262 -376l263 376h62l-300 -422v-278h-52v277z" />
<glyph unicode="&#xde;" horiz-adv-x="673" d="M348 181q49 0 89 12.5t68.5 35t44.5 54.5t16 71v2q0 42 -15.5 73.5t-43.5 52.5t-67 32t-86 11h-198v-344h192zM104 700h52v-127h202q58 0 105.5 -14.5t82 -42t53.5 -67t19 -90.5v-2q0 -55 -22 -97t-59.5 -70t-87 -42.5t-104.5 -14.5h-189v-133h-52v700z" />
<glyph unicode="&#xdf;" horiz-adv-x="620" d="M289 41q100 2 157.5 38.5t57.5 107.5v2q0 68 -57.5 105t-157.5 48v41q37 11 68 27t53.5 37.5t35.5 49t13 61.5v2q0 28 -11 52.5t-30.5 41.5t-47 27t-60.5 10q-36 0 -67 -13.5t-53.5 -38t-35 -60t-12.5 -79.5v-500h-49v500q0 52 15.5 95.5t44 75t69 49t91.5 17.5 q45 0 81.5 -13.5t63 -37t40.5 -55.5t14 -69v-2q0 -36 -13.5 -66.5t-35.5 -54.5t-50.5 -41.5t-57.5 -27.5q39 -7 75.5 -20.5t64.5 -35.5t45 -52.5t17 -70.5v-2q0 -45 -18.5 -80.5t-53.5 -60t-84.5 -37.5t-111.5 -13v43z" />
<glyph unicode="&#xe0;" horiz-adv-x="574" d="M157 698l61 30l88 -133h-42zM251 34q39 0 74 11.5t61.5 32t42 49.5t15.5 64v58q-32 8 -75 15.5t-98 7.5q-81 0 -124.5 -32.5t-43.5 -86.5v-2q0 -28 12 -49.5t32.5 -36.5t47.5 -23t56 -8zM248 -12q-36 0 -71 10t-63 30t-45.5 50t-17.5 70v2q0 40 16.5 71t45.5 52t70 32 t91 11q54 0 93 -6t76 -16v22q0 78 -44.5 117t-123.5 39q-47 0 -86 -11.5t-74 -29.5l-18 43q42 20 85 32t96 12q105 0 161 -56q52 -52 52 -144v-318h-48v85q-13 -18 -31.5 -35.5t-42.5 -31t-54.5 -22t-66.5 -8.5z" />
<glyph unicode="&#xe1;" horiz-adv-x="574" d="M344 728l61 -30l-107 -103h-42zM251 34q39 0 74 11.5t61.5 32t42 49.5t15.5 64v58q-32 8 -75 15.5t-98 7.5q-81 0 -124.5 -32.5t-43.5 -86.5v-2q0 -28 12 -49.5t32.5 -36.5t47.5 -23t56 -8zM248 -12q-36 0 -71 10t-63 30t-45.5 50t-17.5 70v2q0 40 16.5 71t45.5 52t70 32 t91 11q54 0 93 -6t76 -16v22q0 78 -44.5 117t-123.5 39q-47 0 -86 -11.5t-74 -29.5l-18 43q42 20 85 32t96 12q105 0 161 -56q52 -52 52 -144v-318h-48v85q-13 -18 -31.5 -35.5t-42.5 -31t-54.5 -22t-66.5 -8.5z" />
<glyph unicode="&#xe2;" horiz-adv-x="574" d="M270 717h40l100 -122h-47l-74 68l-74 -68h-45zM251 34q39 0 74 11.5t61.5 32t42 49.5t15.5 64v58q-32 8 -75 15.5t-98 7.5q-81 0 -124.5 -32.5t-43.5 -86.5v-2q0 -28 12 -49.5t32.5 -36.5t47.5 -23t56 -8zM248 -12q-36 0 -71 10t-63 30t-45.5 50t-17.5 70v2q0 40 16.5 71 t45.5 52t70 32t91 11q54 0 93 -6t76 -16v22q0 78 -44.5 117t-123.5 39q-47 0 -86 -11.5t-74 -29.5l-18 43q42 20 85 32t96 12q105 0 161 -56q52 -52 52 -144v-318h-48v85q-13 -18 -31.5 -35.5t-42.5 -31t-54.5 -22t-66.5 -8.5z" />
<glyph unicode="&#xe3;" horiz-adv-x="574" d="M142 595q14 54 34 73.5t50 19.5q14 0 31 -6.5t34.5 -14t33.5 -14t29 -6.5q18 0 28.5 10.5t21.5 39.5l34 -9q-14 -54 -34 -73.5t-50 -19.5q-14 0 -31 6.5t-34.5 14t-33.5 14t-29 6.5q-18 0 -28.5 -10.5t-21.5 -39.5zM251 34q39 0 74 11.5t61.5 32t42 49.5t15.5 64v58 q-32 8 -75 15.5t-98 7.5q-81 0 -124.5 -32.5t-43.5 -86.5v-2q0 -28 12 -49.5t32.5 -36.5t47.5 -23t56 -8zM248 -12q-36 0 -71 10t-63 30t-45.5 50t-17.5 70v2q0 40 16.5 71t45.5 52t70 32t91 11q54 0 93 -6t76 -16v22q0 78 -44.5 117t-123.5 39q-47 0 -86 -11.5t-74 -29.5 l-18 43q42 20 85 32t96 12q105 0 161 -56q52 -52 52 -144v-318h-48v85q-13 -18 -31.5 -35.5t-42.5 -31t-54.5 -22t-66.5 -8.5z" />
<glyph unicode="&#xe4;" horiz-adv-x="574" d="M174 675h69v-80h-69v80zM337 675h69v-80h-69v80zM251 34q39 0 74 11.5t61.5 32t42 49.5t15.5 64v58q-32 8 -75 15.5t-98 7.5q-81 0 -124.5 -32.5t-43.5 -86.5v-2q0 -28 12 -49.5t32.5 -36.5t47.5 -23t56 -8zM248 -12q-36 0 -71 10t-63 30t-45.5 50t-17.5 70v2 q0 40 16.5 71t45.5 52t70 32t91 11q54 0 93 -6t76 -16v22q0 78 -44.5 117t-123.5 39q-47 0 -86 -11.5t-74 -29.5l-18 43q42 20 85 32t96 12q105 0 161 -56q52 -52 52 -144v-318h-48v85q-13 -18 -31.5 -35.5t-42.5 -31t-54.5 -22t-66.5 -8.5z" />
<glyph unicode="&#xe5;" horiz-adv-x="574" d="M290 625q25 0 43.5 18t18.5 43v2q0 25 -18 43t-44 18t-44 -18t-18 -43v-2q0 -25 18.5 -43t43.5 -18zM290 593q-20 0 -37.5 7.5t-31 20t-21.5 29.5t-8 36v2q0 19 8 36t21.5 29.5t31 20t37.5 7.5q19 0 37 -7.5t31.5 -20t21.5 -29.5t8 -36v-2q0 -19 -8 -36t-21.5 -29.5 t-31.5 -20t-37 -7.5zM251 34q39 0 74 11.5t61.5 32t42 49.5t15.5 64v58q-32 8 -75 15.5t-98 7.5q-81 0 -124.5 -32.5t-43.5 -86.5v-2q0 -28 12 -49.5t32.5 -36.5t47.5 -23t56 -8zM248 -12q-36 0 -71 10t-63 30t-45.5 50t-17.5 70v2q0 40 16.5 71t45.5 52t70 32t91 11 q54 0 93 -6t76 -16v22q0 78 -44.5 117t-123.5 39q-47 0 -86 -11.5t-74 -29.5l-18 43q42 20 85 32t96 12q105 0 161 -56q52 -52 52 -144v-318h-48v85q-13 -18 -31.5 -35.5t-42.5 -31t-54.5 -22t-66.5 -8.5z" />
<glyph unicode="&#xe6;" horiz-adv-x="954" d="M246 34q66 0 116.5 30.5t87.5 76.5q-10 25 -15.5 52t-6.5 57q-32 8 -72.5 15t-89.5 7q-79 0 -121 -32.5t-42 -86.5v-2q0 -28 11.5 -49.5t31 -36.5t45.5 -23t55 -8zM851 279q-3 39 -15.5 74.5t-35 63t-55.5 44t-77 16.5q-38 0 -71 -15t-57.5 -41.5t-40.5 -63t-19 -78.5 h371zM243 -12q-35 0 -69.5 10t-61.5 30t-44 50t-17 70v2q0 40 16 71t45 52t69 32t88 11q50 0 86.5 -6t73.5 -16v22q0 78 -42 117t-119 39q-45 0 -81.5 -11.5t-71.5 -29.5l-18 43q43 20 83 32t91 12q76 0 126 -32t67 -96q30 60 84 96t122 36q54 0 97 -20.5t73.5 -56.5 t47 -84.5t16.5 -105.5v-10.5t-1 -9.5h-423q3 -48 21 -85t45 -63t61.5 -39.5t72.5 -13.5q60 0 101.5 23t73.5 57l34 -30q-39 -42 -88.5 -69t-122.5 -27q-63 0 -117.5 29.5t-88.5 82.5q-40 -46 -96.5 -79t-132.5 -33z" />
<glyph unicode="&#xe7;" horiz-adv-x="571" d="M208 -122l76 112q-49 6 -90.5 29.5t-71.5 59t-47 80t-17 94.5v2q0 54 20 102t55 85t82.5 58.5t102.5 21.5q36 0 65.5 -7.5t54.5 -20.5t45.5 -30t38.5 -36l-35 -36q-33 34 -73 59t-97 25q-44 0 -81.5 -17t-65 -46.5t-43.5 -69.5t-16 -86v-2q0 -46 16.5 -86.5t45 -70.5 t66.5 -47t82 -17q54 0 96.5 24.5t74.5 60.5l34 -30q-38 -42 -84 -70t-112 -31l-67 -136z" />
<glyph unicode="&#xe8;" horiz-adv-x="584" d="M179 698l61 30l88 -133h-42zM481 279q-3 39 -15.5 74.5t-35 63t-55.5 44t-77 16.5q-38 0 -71 -15t-57.5 -41.5t-40.5 -63t-19 -78.5h371zM308 -12q-50 0 -95.5 19t-80 54t-54.5 84t-20 109v2q0 55 18.5 103.5t51 84.5t76.5 57t96 21q54 0 97 -20.5t73.5 -56.5t47 -84.5 t16.5 -105.5v-10.5t-1 -9.5h-423q3 -48 21 -85t45 -63t61.5 -39.5t72.5 -13.5q60 0 101.5 23t73.5 57l34 -30q-39 -42 -88.5 -69t-122.5 -27z" />
<glyph unicode="&#xe9;" horiz-adv-x="584" d="M345 728l61 -30l-107 -103h-42zM481 279q-3 39 -15.5 74.5t-35 63t-55.5 44t-77 16.5q-38 0 -71 -15t-57.5 -41.5t-40.5 -63t-19 -78.5h371zM308 -12q-50 0 -95.5 19t-80 54t-54.5 84t-20 109v2q0 55 18.5 103.5t51 84.5t76.5 57t96 21q54 0 97 -20.5t73.5 -56.5 t47 -84.5t16.5 -105.5v-10.5t-1 -9.5h-423q3 -48 21 -85t45 -63t61.5 -39.5t72.5 -13.5q60 0 101.5 23t73.5 57l34 -30q-39 -42 -88.5 -69t-122.5 -27z" />
<glyph unicode="&#xea;" horiz-adv-x="584" d="M277 717h40l100 -122h-47l-74 68l-74 -68h-45zM481 279q-3 39 -15.5 74.5t-35 63t-55.5 44t-77 16.5q-38 0 -71 -15t-57.5 -41.5t-40.5 -63t-19 -78.5h371zM308 -12q-50 0 -95.5 19t-80 54t-54.5 84t-20 109v2q0 55 18.5 103.5t51 84.5t76.5 57t96 21q54 0 97 -20.5 t73.5 -56.5t47 -84.5t16.5 -105.5v-10.5t-1 -9.5h-423q3 -48 21 -85t45 -63t61.5 -39.5t72.5 -13.5q60 0 101.5 23t73.5 57l34 -30q-39 -42 -88.5 -69t-122.5 -27z" />
<glyph unicode="&#xeb;" horiz-adv-x="584" d="M181 675h69v-80h-69v80zM344 675h69v-80h-69v80zM481 279q-3 39 -15.5 74.5t-35 63t-55.5 44t-77 16.5q-38 0 -71 -15t-57.5 -41.5t-40.5 -63t-19 -78.5h371zM308 -12q-50 0 -95.5 19t-80 54t-54.5 84t-20 109v2q0 55 18.5 103.5t51 84.5t76.5 57t96 21q54 0 97 -20.5 t73.5 -56.5t47 -84.5t16.5 -105.5v-10.5t-1 -9.5h-423q3 -48 21 -85t45 -63t61.5 -39.5t72.5 -13.5q60 0 101.5 23t73.5 57l34 -30q-39 -42 -88.5 -69t-122.5 -27z" />
<glyph unicode="&#xec;" horiz-adv-x="249" d="M-5 698l61 30l88 -133h-42zM100 510h49v-510h-49v510z" />
<glyph unicode="&#xed;" horiz-adv-x="249" d="M193 728l61 -30l-107 -103h-42zM100 510h49v-510h-49v510z" />
<glyph unicode="&#xee;" horiz-adv-x="249" d="M104 717h40l100 -122h-47l-74 68l-74 -68h-45zM100 510h49v-510h-49v510z" />
<glyph unicode="&#xef;" horiz-adv-x="249" d="M8 675h69v-80h-69v80zM171 675h69v-80h-69v80zM100 510h49v-510h-49v510z" />
<glyph unicode="&#xf0;" horiz-adv-x="628" d="M314 34q45 0 82 17t63.5 45.5t41 66.5t14.5 79v2q0 40 -16 76t-44.5 63t-67 43t-83.5 16t-80.5 -15.5t-60.5 -42.5t-38.5 -63.5t-13.5 -78.5v-2q0 -39 15 -76.5t42 -66t64.5 -46t81.5 -17.5zM309 -12q-54 0 -100 20.5t-79.5 55.5t-52.5 81.5t-19 97.5v2q0 54 20 98.5 t53 76t76.5 49t90.5 17.5q61 0 102.5 -18.5t74.5 -44.5l-147 208l-133 -68l-29 36l137 67l-45 64h63l27 -41l98 50l28 -36l-102 -50l109 -161q38 -56 62.5 -113.5t24.5 -129.5v-2q0 -51 -18.5 -98t-52 -83t-81.5 -57t-107 -21z" />
<glyph unicode="&#xf1;" horiz-adv-x="613" d="M163 595q14 54 34 73.5t50 19.5q14 0 31 -6.5t34.5 -14t33.5 -14t29 -6.5q18 0 28.5 10.5t21.5 39.5l34 -9q-14 -54 -34 -73.5t-50 -19.5q-14 0 -31 6.5t-34.5 14t-33.5 14t-29 6.5q-18 0 -28.5 -10.5t-21.5 -39.5zM93 510h49v-95q26 45 70 76t114 31q48 0 86 -15.5 t64.5 -43.5t40 -66.5t13.5 -84.5v-312h-49v303q0 79 -42 126.5t-120 47.5q-38 0 -70 -13.5t-56 -37.5t-37.5 -57.5t-13.5 -73.5v-295h-49v510z" />
<glyph unicode="&#xf2;" d="M191 698l61 30l88 -133h-42zM321 34q45 0 83.5 17.5t66 47t43 69.5t15.5 85v2q0 46 -16 86.5t-44.5 70.5t-67 47t-82.5 17q-45 0 -83.5 -17.5t-66 -47t-43 -69.5t-15.5 -85v-2q0 -46 16 -86.5t44.5 -70.5t67 -47t82.5 -17zM319 -12q-57 0 -104.5 21.5t-82.5 57.5 t-54.5 84t-19.5 102v2q0 54 19.5 102t55 85t83.5 58.5t105 21.5t104.5 -21.5t82.5 -57.5t54.5 -84t19.5 -102v-2q0 -54 -19.5 -102t-55 -85t-83.5 -58.5t-105 -21.5z" />
<glyph unicode="&#xf3;" d="M388 728l61 -30l-107 -103h-42zM321 34q45 0 83.5 17.5t66 47t43 69.5t15.5 85v2q0 46 -16 86.5t-44.5 70.5t-67 47t-82.5 17q-45 0 -83.5 -17.5t-66 -47t-43 -69.5t-15.5 -85v-2q0 -46 16 -86.5t44.5 -70.5t67 -47t82.5 -17zM319 -12q-57 0 -104.5 21.5t-82.5 57.5 t-54.5 84t-19.5 102v2q0 54 19.5 102t55 85t83.5 58.5t105 21.5t104.5 -21.5t82.5 -57.5t54.5 -84t19.5 -102v-2q0 -54 -19.5 -102t-55 -85t-83.5 -58.5t-105 -21.5z" />
<glyph unicode="&#xf4;" d="M300 717h40l100 -122h-47l-74 68l-74 -68h-45zM321 34q45 0 83.5 17.5t66 47t43 69.5t15.5 85v2q0 46 -16 86.5t-44.5 70.5t-67 47t-82.5 17q-45 0 -83.5 -17.5t-66 -47t-43 -69.5t-15.5 -85v-2q0 -46 16 -86.5t44.5 -70.5t67 -47t82.5 -17zM319 -12q-57 0 -104.5 21.5 t-82.5 57.5t-54.5 84t-19.5 102v2q0 54 19.5 102t55 85t83.5 58.5t105 21.5t104.5 -21.5t82.5 -57.5t54.5 -84t19.5 -102v-2q0 -54 -19.5 -102t-55 -85t-83.5 -58.5t-105 -21.5z" />
<glyph unicode="&#xf5;" d="M172 595q14 54 34 73.5t50 19.5q14 0 31 -6.5t34.5 -14t33.5 -14t29 -6.5q18 0 28.5 10.5t21.5 39.5l34 -9q-14 -54 -34 -73.5t-50 -19.5q-14 0 -31 6.5t-34.5 14t-33.5 14t-29 6.5q-18 0 -28.5 -10.5t-21.5 -39.5zM321 34q45 0 83.5 17.5t66 47t43 69.5t15.5 85v2 q0 46 -16 86.5t-44.5 70.5t-67 47t-82.5 17q-45 0 -83.5 -17.5t-66 -47t-43 -69.5t-15.5 -85v-2q0 -46 16 -86.5t44.5 -70.5t67 -47t82.5 -17zM319 -12q-57 0 -104.5 21.5t-82.5 57.5t-54.5 84t-19.5 102v2q0 54 19.5 102t55 85t83.5 58.5t105 21.5t104.5 -21.5t82.5 -57.5 t54.5 -84t19.5 -102v-2q0 -54 -19.5 -102t-55 -85t-83.5 -58.5t-105 -21.5z" />
<glyph unicode="&#xf6;" d="M204 675h69v-80h-69v80zM367 675h69v-80h-69v80zM321 34q45 0 83.5 17.5t66 47t43 69.5t15.5 85v2q0 46 -16 86.5t-44.5 70.5t-67 47t-82.5 17q-45 0 -83.5 -17.5t-66 -47t-43 -69.5t-15.5 -85v-2q0 -46 16 -86.5t44.5 -70.5t67 -47t82.5 -17zM319 -12q-57 0 -104.5 21.5 t-82.5 57.5t-54.5 84t-19.5 102v2q0 54 19.5 102t55 85t83.5 58.5t105 21.5t104.5 -21.5t82.5 -57.5t54.5 -84t19.5 -102v-2q0 -54 -19.5 -102t-55 -85t-83.5 -58.5t-105 -21.5z" />
<glyph unicode="&#xf8;" d="M321 34q45 0 83.5 17.5t66 47t43 69.5t15.5 85v2q0 41 -12.5 76.5t-34.5 64.5l-298 -310q28 -25 62.5 -38.5t74.5 -13.5zM456 423q-28 25 -62.5 39t-74.5 14q-45 0 -83.5 -17.5t-66 -47t-43 -69.5t-15.5 -85v-2q0 -41 12 -76.5t35 -64.5zM319 -12q-49 0 -91.5 16 t-75.5 44l-52 -53h-57l79 82q-30 35 -47 80.5t-17 95.5v2q0 54 19.5 102t55 85t83.5 58.5t105 21.5q49 0 91.5 -16t75.5 -45l52 56h57l-80 -84q31 -35 48 -80t17 -96v-2q0 -54 -19.5 -102t-55 -85t-83.5 -58.5t-105 -21.5z" />
<glyph unicode="&#xf9;" horiz-adv-x="613" d="M182 693l61 30l88 -133h-42zM287 -12q-48 0 -86 15.5t-64.5 43.5t-40 66.5t-13.5 84.5v312h49v-303q0 -79 42 -126.5t120 -47.5q37 0 69.5 13.5t56.5 37.5t37.5 57.5t13.5 73.5v295h49v-510h-49v95q-26 -45 -70 -76t-114 -31z" />
<glyph unicode="&#xfa;" horiz-adv-x="613" d="M365 723l61 -30l-107 -103h-42zM287 -12q-48 0 -86 15.5t-64.5 43.5t-40 66.5t-13.5 84.5v312h49v-303q0 -79 42 -126.5t120 -47.5q37 0 69.5 13.5t56.5 37.5t37.5 57.5t13.5 73.5v295h49v-510h-49v95q-26 -45 -70 -76t-114 -31z" />
<glyph unicode="&#xfb;" horiz-adv-x="613" d="M288 717h40l100 -122h-47l-74 68l-74 -68h-45zM287 -12q-48 0 -86 15.5t-64.5 43.5t-40 66.5t-13.5 84.5v312h49v-303q0 -79 42 -126.5t120 -47.5q37 0 69.5 13.5t56.5 37.5t37.5 57.5t13.5 73.5v295h49v-510h-49v95q-26 -45 -70 -76t-114 -31z" />
<glyph unicode="&#xfc;" horiz-adv-x="613" d="M192 675h69v-80h-69v80zM355 675h69v-80h-69v80zM287 -12q-48 0 -86 15.5t-64.5 43.5t-40 66.5t-13.5 84.5v312h49v-303q0 -79 42 -126.5t120 -47.5q37 0 69.5 13.5t56.5 37.5t37.5 57.5t13.5 73.5v295h49v-510h-49v95q-26 -45 -70 -76t-114 -31z" />
<glyph unicode="&#xfd;" horiz-adv-x="588" d="M369 723l61 -30l-107 -103h-42zM155 -163q-29 0 -52 5.5t-49 16.5l17 43q20 -10 39 -14.5t48 -4.5q20 0 37 6t32 20.5t29 37.5t28 56l-245 507h57l212 -456l184 456h54l-221 -528q-34 -80 -74.5 -112.5t-95.5 -32.5z" />
<glyph unicode="&#xfe;" horiz-adv-x="660" d="M347 35q42 0 78.5 15t63.5 43t42.5 68.5t15.5 91.5v2q0 50 -16 91t-43.5 69.5t-64 44t-76.5 15.5t-77.5 -16t-66.5 -45t-46.5 -69t-17.5 -89v-2q0 -49 17.5 -89.5t46.5 -69t66.5 -44.5t77.5 -16zM93 730h49v-334q16 25 37 48t46.5 40t57 27.5t69.5 10.5q46 0 90.5 -18 t79.5 -52t56.5 -83.5t21.5 -111.5v-2q0 -62 -21.5 -111.5t-56.5 -84t-79.5 -53t-90.5 -18.5q-38 0 -70 10t-57.5 27t-46 39t-36.5 46v-270h-49v890z" />
<glyph unicode="&#xff;" horiz-adv-x="588" d="M178 675h69v-80h-69v80zM341 675h69v-80h-69v80zM155 -163q-29 0 -52 5.5t-49 16.5l17 43q20 -10 39 -14.5t48 -4.5q20 0 37 6t32 20.5t29 37.5t28 56l-245 507h57l212 -456l184 456h54l-221 -528q-34 -80 -74.5 -112.5t-95.5 -32.5z" />
<glyph unicode="&#x152;" horiz-adv-x="1152" d="M601 48v604h-156q-73 0 -132 -23.5t-100 -64t-63.5 -95t-22.5 -117.5v-2q0 -62 22.5 -117t63.5 -96t100 -65t132 -24h156zM445 0q-83 0 -151 26.5t-117.5 73.5t-76.5 110.5t-27 137.5v2q0 74 27 138t76.5 111t117.5 74t151 27h639v-48h-431v-275h386v-48h-386v-281h436 v-48h-644z" />
<glyph unicode="&#x153;" horiz-adv-x="1055" d="M321 34q45 0 83.5 17.5t66 47t43 69.5t15.5 85v2q0 46 -16 86.5t-44.5 70.5t-67 47t-82.5 17q-45 0 -83.5 -17.5t-66 -47t-43 -69.5t-15.5 -85v-2q0 -46 16 -86.5t44.5 -70.5t67 -47t82.5 -17zM952 279q-3 39 -15.5 74.5t-35 63t-55.5 44t-77 16.5q-38 0 -71 -15 t-57.5 -41.5t-40.5 -63t-19 -78.5h371zM318 -12q-56 0 -103.5 21.5t-82.5 57.5t-54.5 84t-19.5 102v2q0 54 20 102t55 85t83 58.5t104 21.5q40 0 76.5 -11.5t66.5 -32.5t53 -49.5t38 -62.5q28 70 85.5 113t132.5 43q53 0 96 -20.5t73.5 -56.5t47 -84.5t16.5 -105.5v-10.5 t-1 -9.5h-423q3 -48 21 -85t45 -63t61.5 -39.5t72.5 -13.5q60 0 101.5 23t73.5 57l34 -30q-39 -42 -88 -69t-121 -27q-37 0 -71.5 11t-64.5 31t-53 49.5t-38 65.5q-15 -34 -38 -63t-53.5 -50t-67 -32.5t-77.5 -11.5z" />
<glyph unicode="&#x178;" horiz-adv-x="716" d="M242 840h69v-80h-69v80zM405 840h69v-80h-69v80zM332 277l-300 423h65l262 -376l263 376h62l-300 -422v-278h-52v277z" />
<glyph unicode="&#x2c6;" horiz-adv-x="500" d="M230 717h40l100 -122h-47l-74 68l-74 -68h-45z" />
<glyph unicode="&#x2dc;" horiz-adv-x="500" d="M102 595q14 54 34 73.5t50 19.5q14 0 31 -6.5t34.5 -14t33.5 -14t29 -6.5q18 0 28.5 10.5t21.5 39.5l34 -9q-14 -54 -34 -73.5t-50 -19.5q-14 0 -31 6.5t-34.5 14t-33.5 14t-29 6.5q-18 0 -28.5 -10.5t-21.5 -39.5z" />
<glyph unicode="&#x2000;" horiz-adv-x="449" />
<glyph unicode="&#x2001;" horiz-adv-x="898" />
<glyph unicode="&#x2002;" horiz-adv-x="449" />
<glyph unicode="&#x2003;" horiz-adv-x="898" />
<glyph unicode="&#x2004;" horiz-adv-x="299" />
<glyph unicode="&#x2005;" horiz-adv-x="224" />
<glyph unicode="&#x2006;" horiz-adv-x="149" />
<glyph unicode="&#x2007;" horiz-adv-x="149" />
<glyph unicode="&#x2008;" horiz-adv-x="112" />
<glyph unicode="&#x2009;" horiz-adv-x="179" />
<glyph unicode="&#x200a;" horiz-adv-x="49" />
<glyph unicode="&#x2010;" horiz-adv-x="408" d="M70 325h268v-56h-268v56z" />
<glyph unicode="&#x2011;" horiz-adv-x="408" d="M70 325h268v-56h-268v56z" />
<glyph unicode="&#x2012;" horiz-adv-x="408" d="M70 325h268v-56h-268v56z" />
<glyph unicode="&#x2013;" horiz-adv-x="528" d="M70 323h388v-52h-388v52z" />
<glyph unicode="&#x2014;" horiz-adv-x="898" d="M70 323h758v-52h-758v52z" />
<glyph unicode="&#x2018;" horiz-adv-x="230" d="M77 587q0 47 19 74t64 44l12 -25q-32 -17 -45 -35t-11 -47h27v-85h-66v74z" />
<glyph unicode="&#x2019;" horiz-adv-x="230" d="M58 533q32 17 45 35t11 47h-27v85h66v-74q0 -47 -19 -74t-64 -44z" />
<glyph unicode="&#x201a;" horiz-adv-x="230" d="M53 -82q32 17 45 35t11 47h-27v85h66v-74q0 -47 -19 -74t-64 -44z" />
<glyph unicode="&#x201c;" horiz-adv-x="410" d="M77 587q0 47 19 74t64 44l12 -25q-32 -17 -45 -35t-11 -47h27v-85h-66v74zM257 587q0 47 19 74t64 44l12 -25q-32 -17 -45 -35t-11 -47h27v-85h-66v74z" />
<glyph unicode="&#x201d;" horiz-adv-x="410" d="M58 533q32 17 45 35t11 47h-27v85h66v-74q0 -47 -19 -74t-64 -44zM238 533q32 17 45 35t11 47h-27v85h66v-74q0 -47 -19 -74t-64 -44z" />
<glyph unicode="&#x201e;" horiz-adv-x="410" d="M53 -82q32 17 45 35t11 47h-27v85h66v-74q0 -47 -19 -74t-64 -44zM233 -82q32 17 45 35t11 47h-27v85h66v-74q0 -47 -19 -74t-64 -44z" />
<glyph unicode="&#x2022;" horiz-adv-x="470" d="M235 228q-26 0 -48.5 9.5t-39 26.5t-26.5 39t-10 48v2q0 25 10 47.5t27.5 39.5t40 26.5t46.5 9.5t46.5 -9.5t39.5 -26.5t27.5 -39.5t10.5 -47.5v-2q0 -26 -10 -48t-26.5 -39t-39.5 -26.5t-48 -9.5z" />
<glyph unicode="&#x2026;" horiz-adv-x="680" d="M82 83h64v-83h-64v83zM308 83h64v-83h-64v83zM534 83h64v-83h-64v83z" />
<glyph unicode="&#x202f;" horiz-adv-x="179" />
<glyph unicode="&#x2030;" horiz-adv-x="1200" d="M616 35q22 0 40.5 10.5t32 28.5t21 42.5t7.5 52.5v2q0 29 -8 54t-22.5 43t-33 28.5t-39.5 10.5q-22 0 -40.5 -10.5t-32 -29t-21 -43t-7.5 -51.5v-2q0 -30 8 -55t22.5 -43t33 -28t39.5 -10zM992 35q22 0 40.5 10.5t32 28.5t21 42.5t7.5 52.5v2q0 29 -8 54t-22.5 43 t-33 28.5t-39.5 10.5q-22 0 -40.5 -10.5t-32 -29t-21 -43t-7.5 -51.5v-2q0 -30 8 -55t22.5 -43t33 -28t39.5 -10zM210 393q22 0 40.5 10.5t32 28.5t21 42.5t7.5 52.5v2q0 29 -8 54t-22.5 43t-33 28.5t-39.5 10.5q-22 0 -40.5 -10.5t-32 -29t-21 -43t-7.5 -51.5v-2 q0 -30 8 -55t22.5 -43t33 -28t39.5 -10zM614 -8q-35 0 -63 14.5t-48 39t-31 56.5t-11 67v2q0 35 11 67.5t31.5 57t49 39.5t63.5 15q34 0 62.5 -14.5t48.5 -39.5t31 -57t11 -66v-2q0 -35 -11 -67.5t-31.5 -57.5t-49 -39.5t-63.5 -14.5zM990 -8q-35 0 -63 14.5t-48 39 t-31 56.5t-11 67v2q0 35 11 67.5t31.5 57t49 39.5t63.5 15q34 0 62.5 -14.5t48.5 -39.5t31 -57t11 -66v-2q0 -35 -11 -67.5t-31.5 -57.5t-49 -39.5t-63.5 -14.5zM642 700h54l-514 -700h-54zM208 350q-35 0 -63 14.5t-48 39t-31 56.5t-11 67v2q0 35 11 67.5t31.5 57t49 39.5 t63.5 15q34 0 62.5 -14.5t48.5 -39.5t31 -57t11 -66v-2q0 -35 -11 -67.5t-31.5 -57.5t-49 -39.5t-63.5 -14.5z" />
<glyph unicode="&#x2039;" horiz-adv-x="311" d="M51 251v8l160 209l37 -24l-137 -188l137 -190l-37 -24z" />
<glyph unicode="&#x203a;" horiz-adv-x="311" d="M63 66l137 188l-137 190l37 24l160 -209v-8l-160 -209z" />
<glyph unicode="&#x205f;" horiz-adv-x="224" />
<glyph unicode="&#x2122;" horiz-adv-x="690" d="M127 666h-101v34h237v-34h-101v-274h-35v274zM333 700h37l120 -183l120 183h36v-308h-35v246l-119 -178h-5l-119 178v-246h-35v308z" />
<glyph unicode="&#x25fc;" horiz-adv-x="510" d="M0 510h510v-510h-510v510z" />
</font>
</defs></svg> 